…
#### View Business as Machine

**Step 1: Isolate Business Units**

In realistic situation, we may not have the data on all the columns
listed, so subsetting data here for fields of interest like
EmployeeNumber, Department, JobRole, Attrition

``` r
dept_job_role_tbl <- train_raw_tbl %>% select(EmployeeNumber,Department,JobRole,Attrition)

dept_job_role_tbl
```

    ## # A tibble: 1,250 x 4
    ##    EmployeeNumber Department             JobRole                  
    ##             <dbl> <chr>                  <chr>                    
    ##  1              1 Sales                  Sales Executive          
    ##  2              2 Research & Development Research Scientist       
    ##  3              4 Research & Development Laboratory Technician    
    ##  4              5 Research & Development Research Scientist       
    ##  5              7 Research & Development Laboratory Technician    
    ##  6              8 Research & Development Laboratory Technician    
    ##  7             10 Research & Development Laboratory Technician    
    ##  8             11 Research & Development Laboratory Technician    
    ##  9             12 Research & Development Manufacturing Director   
    ## 10             13 Research & Development Healthcare Representative
    ##    Attrition
    ##    <chr>    
    ##  1 Yes      
    ##  2 No       
    ##  3 Yes      
    ##  4 No       
    ##  5 No       
    ##  6 No       
    ##  7 No       
    ##  8 No       
    ##  9 No       
    ## 10 No       
    ## # … with 1,240 more rows
…
path_data_definitions <- "00_Data/telco_data_definitions.xlsx"

train_raw_tbl <- read_excel(path_train, sheet=1)
test_raw_tbl <- read_excel(path_test, sheet=1)

definitions_raw_tbl <- read_excel(path_data_definitions, sheet = 1, col_names = FALSE)
```

**Reading data definitions table**

``` r
definitions_raw_tbl 
```

    ## # A tibble: 35 x 2
    ##    X__1                    X__2             
    ##    <chr>                   <chr>            
    ##  1 Education               1 'Below College'
    ##  2 <NA>                    2 'College'      
    ##  3 <NA>                    3 'Bachelor'     
    ##  4 <NA>                    4 'Master'       
    ##  5 <NA>                    5 'Doctor'       
    ##  6 <NA>                    <NA>             
    ##  7 EnvironmentSatisfaction 1 'Low'          
    ##  8 <NA>                    2 'Medium'       
    ##  9 <NA>                    3 'High'         
    ## 10 <NA>                    4 'Very High'    
    ## # … with 25 more rows
…
return(data_cor)  
}
```

Using **train\_tbl** which has been well formatted for Correlation
Analysis

``` r
train_tbl %>% 
  get_cor(Attrition_Yes, fct_reorder = T, fct_rev = T )
```

    ## # A tibble: 82 x 2
    ##    feature                          Attrition_Yes
    ##    <fct>                                    <dbl>
    ##  1 PerformanceRating_Good                  NA    
    ##  2 PerformanceRating_Low                   NA    
    ##  3 OverTime_Yes                             0.240
    ##  4 JobLevel_X1                              0.212
    ##  5 StockOptionLevel_X0                      0.199
    ##  6 MaritalStatus_Single                     0.172
    ##  7 JobRole_Sales.Representative             0.153
    ##  8 EnvironmentSatisfaction_Low              0.119
    ##  9 WorkLifeBalance_Bad                      0.109
    ## 10 BusinessTravel_Travel_Frequently         0.103
    ## # … with 72 more rows
…
**Making Predictions**

``` r
predictions <- h2o.predict(deeplearning_h2o, newdata = as.h2o(test_tbl))
```

``` r
# Saving it as a tibble
predictions_tbl <- predictions %>% as.tibble()
predictions_tbl
```

    ## # A tibble: 220 x 3
    ##    predict    No      Yes
    ##    <fct>   <dbl>    <dbl>
    ##  1 No      0.983 0.0167  
    ##  2 No      0.975 0.0250  
    ##  3 No      0.999 0.000648
    ##  4 No      0.984 0.0155  
    ##  5 Yes     0.288 0.712   
    ##  6 No      0.892 0.108   
    ##  7 Yes     0.595 0.405   
    ##  8 No      0.999 0.00117 
    ##  9 No      0.998 0.00228 
    ## 10 No      0.999 0.000512
    ## # … with 210 more rows
…
Emphasizes how much model improves results

**Ranked Predictions :** By ranking by class probability of Yes, we
assess the models ability to truly detect someone that is leaving

``` r
ranked_predictions_tbl <- predictions_tbl %>%
  bind_cols(test_tbl) %>%
  select(predict:Yes, Attrition) %>%
  arrange(desc(Yes))

ranked_predictions_tbl
```

    ## # A tibble: 220 x 4
    ##    predict     No   Yes Attrition
    ##    <fct>    <dbl> <dbl> <fct>    
    ##  1 Yes     0.0180 0.982 Yes      
    ##  2 Yes     0.0389 0.961 Yes      
    ##  3 Yes     0.0770 0.923 Yes      
    ##  4 Yes     0.103  0.897 Yes      
    ##  5 Yes     0.115  0.885 Yes      
    ##  6 Yes     0.142  0.858 Yes      
    ##  7 Yes     0.143  0.857 Yes      
    ##  8 Yes     0.159  0.841 Yes      
    ##  9 Yes     0.264  0.736 No       
    ## 10 Yes     0.288  0.712 Yes      
    ## # … with 210 more rows
…
``` r
explanation %>%
    as.tibble()
```

    ## # A tibble: 160 x 13
    ##    model_type     case  label label_prob model_r2 model_intercept
    ##    <chr>          <chr> <chr>      <dbl>    <dbl>           <dbl>
    ##  1 classification 1     No         0.964    0.212           0.670
    ##  2 classification 1     No         0.964    0.212           0.670
    ##  3 classification 1     No         0.964    0.212           0.670
    ##  4 classification 1     No         0.964    0.212           0.670
    ##  5 classification 1     No         0.964    0.212           0.670
    ##  6 classification 1     No         0.964    0.212           0.670
    ##  7 classification 1     No         0.964    0.212           0.670
    ##  8 classification 1     No         0.964    0.212           0.670
    ##  9 classification 2     No         0.856    0.338           0.764
    ## 10 classification 2     No         0.856    0.338           0.764
    ##    model_prediction feature                 feature_value feature_weight
    ##               <dbl> <chr>                           <dbl>          <dbl>
    ##  1            0.896 OverTime                            1         0.168 
    ##  2            0.896 Department                          3        -0.0797
    ##  3            0.896 YearsSinceLastPromotion             7        -0.0703
    ##  4            0.896 MonthlyIncome                    9419         0.0705
    ##  5            0.896 StockOptionLevel                    2         0.0638
    ##  6            0.896 YearsInCurrentRole                  9         0.0627
    ##  7            0.896 JobSatisfaction                     4         0.0624
    ##  8            0.896 Age                                30        -0.0515
    ##  9            0.664 YearsAtCompany                     33        -0.227 
    ## 10            0.664 OverTime                            2        -0.172 
    ##    feature_desc                data        prediction
    ##    <chr>                       <list>      <list>    
    ##  1 OverTime = No               <list [31]> <list [2]>
    ##  2 Department = Sales          <list [31]> <list [2]>
    ##  3 3 < YearsSinceLastPromotion <list [31]> <list [2]>
    ##  4 8395 < MonthlyIncome        <list [31]> <list [2]>
    ##  5 StockOptionLevel = 1        <list [31]> <list [2]>
    ##  6 7 < YearsInCurrentRole      <list [31]> <list [2]>
    ##  7 JobSatisfaction = Very High <list [31]> <list [2]>
    ##  8 Age <= 30                   <list [31]> <list [2]>
    ##  9 10 < YearsAtCompany         <list [31]> <list [2]>
    ## 10 OverTime = Yes              <list [31]> <list [2]>
    ## # … with 150 more rows
…
``` r
predictions_with_OT_tbl 
```

    ## # A tibble: 220 x 6
    ##    predict    No    Yes EmployeeNumber MonthlyIncome OverTime
    ##    <fct>   <dbl>  <dbl>          <dbl>         <dbl> <fct>   
    ##  1 No      0.964 0.0359            228          9419 No      
    ##  2 No      0.856 0.144            1278         13577 Yes     
    ##  3 No      0.970 0.0298           1250         17779 No      
    ##  4 No      0.954 0.0456           2065          5390 No      
    ##  5 Yes     0.200 0.800            1767          2437 Yes     
    ##  6 No      0.927 0.0728           1308          2372 No      
    ##  7 No      0.951 0.0490             18          2661 No      
    ##  8 No      0.967 0.0331            460          6347 No      
    ##  9 No      0.970 0.0303           1369          5363 No      
    ## 10 No      0.966 0.0344           1040          6347 No      
    ## # … with 210 more rows
…
ev_with_OT_tbl
```

    ## # A tibble: 220 x 9
    ##    predict    No    Yes EmployeeNumber MonthlyIncome OverTime
    ##    <fct>   <dbl>  <dbl>          <dbl>         <dbl> <fct>   
    ##  1 No      0.964 0.0359            228          9419 No      
    ##  2 No      0.856 0.144            1278         13577 Yes     
    ##  3 No      0.970 0.0298           1250         17779 No      
    ##  4 No      0.954 0.0456           2065          5390 No      
    ##  5 Yes     0.200 0.800            1767          2437 Yes     
    ##  6 No      0.927 0.0728           1308          2372 No      
    ##  7 No      0.951 0.0490             18          2661 No      
    ##  8 No      0.967 0.0331            460          6347 No      
    ##  9 No      0.970 0.0303           1369          5363 No      
    ## 10 No      0.966 0.0344           1040          6347 No      
    ##    attrition_cost cost_of_policy_change expected_attrition_cost
    ##             <dbl>                 <dbl>                   <dbl>
    ##  1         72979.                     0                   2618.
    ##  2         64663.                     0                   9298.
    ##  3         56259.                     0                   1677.
    ##  4         81037.                     0                   3698.
    ##  5         86943.                     0                  69570.
    ##  6         87073.                     0                   6341.
    ##  7         86495.                     0                   4242.
    ##  8         79123.                     0                   2616.
    ##  9         81091.                     0                   2458.
    ## 10         79123.                     0                   2723.
    ## # … with 210 more rows
…
``` r
predictions_targeted_OT_tbl
```

    ## # A tibble: 220 x 7
    ##    predict    No    Yes EmployeeNumber MonthlyIncome OverTime_0 OverTime_1
    ##    <fct>   <dbl>  <dbl>          <dbl>         <dbl> <fct>      <fct>     
    ##  1 No      0.964 0.0359            228          9419 No         No        
    ##  2 No      0.856 0.144            1278         13577 Yes        Yes       
    ##  3 No      0.970 0.0298           1250         17779 No         No        
    ##  4 No      0.954 0.0456           2065          5390 No         No        
    ##  5 No      0.795 0.205            1767          2437 Yes        No        
    ##  6 No      0.927 0.0728           1308          2372 No         No        
    ##  7 No      0.951 0.0490             18          2661 No         No        
    ##  8 No      0.967 0.0331            460          6347 No         No        
    ##  9 No      0.970 0.0303           1369          5363 No         No        
    ## 10 No      0.966 0.0344           1040          6347 No         No        
    ## # … with 210 more rows
…
ev_targeted_OT_tbl
```

    ## # A tibble: 220 x 14
    ##    predict    No    Yes EmployeeNumber MonthlyIncome OverTime_0 OverTime_1
    ##    <fct>   <dbl>  <dbl>          <dbl>         <dbl> <fct>      <fct>     
    ##  1 No      0.964 0.0359            228          9419 No         No        
    ##  2 No      0.856 0.144            1278         13577 Yes        Yes       
    ##  3 No      0.970 0.0298           1250         17779 No         No        
    ##  4 No      0.954 0.0456           2065          5390 No         No        
    ##  5 No      0.795 0.205            1767          2437 Yes        No        
    ##  6 No      0.927 0.0728           1308          2372 No         No        
    ##  7 No      0.951 0.0490             18          2661 No         No        
    ##  8 No      0.967 0.0331            460          6347 No         No        
    ##  9 No      0.970 0.0303           1369          5363 No         No        
    ## 10 No      0.966 0.0344           1040          6347 No         No        
    ##    attrition_cost cost_of_policy_change cb_tn cb_fp  cb_tp  cb_fn
    ##             <dbl>                 <dbl> <dbl> <dbl>  <dbl>  <dbl>
    ##  1         72979.                    0     0     0  72979. 72979.
    ##  2         64663.                    0     0     0  64663. 64663.
    ##  3         56259.                    0     0     0  56259. 56259.
    ##  4         81037.                    0     0     0  81037. 81037.
    ##  5         86943.                 8694. 8694. 8694. 95637. 95637.
    ##  6         87073.                    0     0     0  87073. 87073.
    ##  7         86495.                    0     0     0  86495. 86495.
    ##  8         79123.                    0     0     0  79123. 79123.
    ##  9         81091.                    0     0     0  81091. 81091.
    ## 10         79123.                    0     0     0  79123. 79123.
    ##    expected_attrition_cost
    ##                      <dbl>
    ##  1                   2618.
    ##  2                   9298.
    ##  3                   1677.
    ##  4                   3698.
    ##  5                  26547.
    ##  6                   6341.
    ##  7                   4242.
    ##  8                   2616.
    ##  9                   2458.
    ## 10                   2723.
    ## # … with 210 more rows
…
  
``` r
sensitivity_tbl
```

    ## # A tibble: 30 x 3
    ##    avg_overtime_pct net_revenue_per_employee savings
    ##               <dbl>                    <dbl>   <dbl>
    ##  1             0.05                   200000 534281.
    ##  2             0.1                    200000 428535.
    ##  3             0.15                   200000 322789.
    ##  4             0.2                    200000 217042.
    ##  5             0.25                   200000 111296.
    ##  6             0.3                    200000   5549.
    ##  7             0.05                   250000 646820.
    ##  8             0.1                    250000 518469.
    ##  9             0.15                   250000 390119.
    ## 10             0.2                    250000 261768.
    ## # … with 20 more rows
…
   
``` r
sensitivity_tbl_3
```

    ## # A tibble: 30 x 4
    ##    avg_overtime_pct net_revenue_per_employee stock_option_cost  savings
    ##               <dbl>                    <dbl>             <dbl>    <dbl>
    ##  1             0.05                   250000              5000 1136672.
    ##  2             0.1                    250000              5000 1052881.
    ##  3             0.15                   250000              5000  969090.
    ##  4             0.2                    250000              5000  885299.
    ##  5             0.25                   250000              5000  801508.
    ##  6             0.3                    250000              5000  717716.
    ##  7             0.05                   250000             10000  911672.
    ##  8             0.1                    250000             10000  827881.
    ##  9             0.15                   250000             10000  744090.
    ## 10             0.2                    250000             10000  660299.
    ## # … with 20 more rows
…
